[
    {
        "image": "users",
        "name": "People",
        "description": "Send invitations to your development team so the can take advantage of membership resouces."
    },
    {
        "image": "certificate",
        "name": "Certificates, IDs & Profiles",
        "description": "Manage the certificates, identifiers, profiles, and devices you need to develop and distribute apps."
    },
    {
        "image": "app store",
        "name": "App Store Connect",
        "description": "Publish and manage your apps on the App Store with App Store Connect."
    },
    {
        "image": "app store",
        "name": "App Store Connect",
        "description": "Publish and manage your apps on the App Store with App Store Connect."
    },
    {
        "image": "app store",
        "name": "App Store Connect",
        "description": "Publish and manage your apps on the App Store with App Store Connect."
    },
    {
        "image": "app store",
        "name": "App Store Connect",
        "description": "Publish and manage your apps on the App Store with App Store Connect."
    },
    {
        "image": "app store",
        "name": "App Store Connect",
        "description": "Publish and manage your apps on the App Store with App Store Connect."
    },
    {
        "image": "app store",
        "name": "App Store Connect",
        "description": "Publish and manage your apps on the App Store with App Store Connect."
    },
    {
        "image": "app store",
        "name": "App Store Connect",
        "description": "Publish and manage your apps on the App Store with App Store Connect."
    },
    {
        "image": "app store",
        "name": "App Store Connect",
        "description": "Publish and manage your apps on the App Store with App Store Connect."
    },
    {
        "image": "app store",
        "name": "App Store Connect",
        "description": "Publish and manage your apps on the App Store with App Store Connect."
    }
]